{
  "coin_address_eachExchange" : {"bithumb" : {"BTC" : "3D9T6tV2hDyRLCdYxNEhCd8FsKHpTGguDD",
                                              "ETH" : "0xa2ba5b3a3dedfc7a3dc6a434d328cc6d724bb8d7",
                                              "ETC" : "0xfb07bd0170dae2ba5a69bca654e53fc9db0d70ae",
                                              "LTC" : "MCbvL5oqb3jKGPGLd2iH43eeQT8fYjDXQM",
                                              "DASH" : "Xd1C85bD7o9SLNb6PKzNgNPDxYTMN1Jg2e",
                                              "BTG" : "GRmMFcvQarnScHUCYns23QkX3sU85CZJaP",
                                              "QTUM" : "Qa3tToLzjdYA5fUax6Pq1nhAANDoYLtiNA",
                                              "XRP" : {"address" : "rNTkgxs5WG5mU5Sz26YoDVrHim5Y5ohC7","tag": 1000433842},
                                              "XMR" : {"address" : "4L7DhwADX9Y6wN7BfFBaEfF3Fw8uc3LiV8NUpTXgNDk8EeP732b1yRxJGuNLwr4nowbn7g6kocN5LgVGVqsXuSseHBdJp9BF3hgKGuQKVZ"}},
                                 "poloniex" : {"BTC" : "1FpubqzFshCEwBuH7NTPWEBvKXHy7HVxFK",
                                              "ETH" : "0x0854a830cbec2b5fc5e72071f84eb8f998c87af0",
                                              "ETC" : "0x9a914bdccb73cd9c2fe507451a2caa98289c5cf1",
                                              "LTC" : "LYAJeJSU83JUDgncm1cbEGyUkQ9oKgbzF3",
                                              "QTUM" : "Qiz6yTbXZKBmEaMLSutxGRPpXJroJ2ikjQ",
                                              "DASH" : "XeiCFxrU4JUihF2UcXRxFz7wLjuxYBdZU9",
                                              "XRP" : "rhFrB7ZMEviYfbAUse2rTzVPRdsBaxhEhu"},
                                  "bitfinex" : {"BTC" : "142HZs3z95nKxAuyrXSaT6Rd3diFx9ruDQ",
                                              "ETH" : "0xc5dc12be0e7ce7fec93b8403157c1350062f6026",
                                              "ETC" : "0xc5dc12be0e7ce7fec93b8403157c1350062f6026",
                                              "LTC" : "LM4DpjDkxg8949TLNYBHJHx8L8vkovKQEj",
                                              "DASH" : "Xtv8buf32XmEGGosVaxBNwYsThc43XcEVV",
                                              "QTUM" : "QWWEPa7EMvb5d1UueHs9NPz65Ua5jaWAob",
                                              "XRP" : {"address" : "rLW9gnQo7BQhU6igk5keqYnH3TVrCxGRzm","tag": 441150000},
                                              "BTG" : "GdSNm5Q9RxJCVn3hNcVRDGMqhc6ZrLpYXb",
                                              "XMR" : {"address" : "4BCeEPhodgPMbPWFN1dPwhWXdRX8q4mhhdZdA1dtSMLTLCEYvAj9QXjXAfF7CugEbmfBhgkqHbdgK9b2wKA6nqRZQCgvCDm","tag": "2c05f824345e14f636626440042086fef510d47591895e9efe83b36bf2d21d4d"}},
                                  "bittrex" : {"BTC" : "14UmdL5Beq1fN6vrMigxWFieNWw1ppL1UT",
                                              "ETH" : "0xa24d1cc1545ab02e65295ef342e8e9277989e60c",
                                              "ETC" : "0xfad8464a6c264d9f5ee124e6b58ad5322f3b573a",
                                              "LTC" : "LWNtZXXYyu8EJkipgUAR3MSXj2YPsBkPLC",
                                              "DASH" : "XtAX7ZEt2WidrtN9CeZT8rLJ2ZGeuKL6Vr",
                                              "XRP" : {"address" : "rPVMhWBsfF9iMXYj3aAzJVkPDTFNSyWdKy","tag": 834004429},
                                              "XMR" : {"address" : "rPVMhWBsfF9iMXYj3aAzJVkPDTFNSyWdKy","tag": 834004429}}
                                 },
  "feeInfo_eachExchange" : {"bithumb" : {"prePaid_coupon" : false, "consideringFee_when_transferOrder" : false ,
                "tradeFee_ratio" : 0.0015,
                "transferFee_coin": {"BTC": 0.001, "ETH": 0.01, "ETC": 0.01, "LTC": 0.01, "DASH": 0.01,"XRP": 1, "XMR" : 0.05, "QTUM" : 0.05},
                "_comment" : "bithumb tradeFee_ratio is prePaid_coupon applied fee, https://www.bithumb.com/u1/US138"},
                "poloniex" : {"prePaid_coupon" : false, "consideringFee_when_transferOrder" : true ,
                "tradeFee_ratio":  0.0025,
                "transferFee_coin" : {"BTC": 0.0005, "ETH": 0.01, "ETC": 0.01, "LTC": 0.001, "DASH": 0.01,"XRP":0.15},
                "_comment" : "https://poloniex.com/feeTier/"},
                "bitfinex" : {"prePaid_coupon" : false, "consideringFee_when_transferOrder" : false ,
                "tradeFee_ratio":  0.002,
                "transferFee_coin" : {"BTC": 0.0004, "ETH": 0.0027, "ETC": 0.01, "LTC": 0.001, "DASH": 0.01,"XRP":0.02, "XMR" : 0.04, "QTUM" : 0.01},
                "_comment" : "https://www.bitfinex.com/fees"},
                "bittrex" : {"prePaid_coupon" : false, "consideringFee_when_transferOrder" : true ,
                "tradeFee_ratio":  0.0025,
                "transferFee_coin" : {"BTC": 0.001, "ETH": 0.005, "ETC": 0.01, "LTC": 0.002, "DASH": 0.01,"XRP":0.02},
                "_comment" : "https://www.bitfinex.com/fees"}
                            },
  "coin_roleList_eachExchange" : {"bithumb" :{"fiat" : "KRW","KRW" : ["BTC", "ETC", "LTC", "DASH", "XRP","ETH","QTUM"]},
                                  "poloniex" : {"fiat" : "USDT","BTC" : [ "ETC", "LTC", "DASH", "XRP","ETH"], "ETH" : ["ETC"], "USDT" : ["BTC", "ETH", "ETC", "LTC", "DASH", "XRP"] },
                                  "bitfinex" : {"fiat" : "USD","BTC" : [ "ETC", "LTC", "DASH", "XRP","ETH", "QTUM"], "USD" : ["BTC","ETC", "LTC", "DASH", "XRP","ETH", "QTUM"], "ETH" : ["QTUM"]},
                                  "bittrex" : {"fiat" : "USDT","BTC" : [ "ETC", "LTC", "DASH", "XRP"], "USDT" : ["BTC", "ETC", "LTC", "DASH", "XRP"]}
                                  },
  "atra_module" : {"atraServer" : {"host" : "https://192.168.0.1","port" : "5000"},
                    "atraCycle_DB" : {"DB_name" : "atra","collection" : "atraCycle"},
                    "atraCnp_DB" : {"DB_name" : "atra", "collection" : "atraCnp"},
                    "atraBalance_DB" : {"DB_name" : "atra" ,"collection" : "atraBalance"},
                    "atra_REPORT" : {"server" : "atraServer", "report_period" : 5 }
                    },
  "convertible_symbol" : { "bitfinex" : {"DASH" : "DSH" , "QTUM" : "QTM"} ,
                              "poloniex" : {} , "_comment" : "'atraCommonSymbol : exchangeSymbol " },
  "api_client_info" : {"bithumb" :{"type" : ["restful"], "role" : {}},
                    "poloniex" : {"type" : ["restful"], "role" : {}},
                    "bitfinex" : {"type" : ["restful","websocket"], "role" : {"orderbook" : "websocket"}},
                    "bittrex" :{"type" : ["restful"], "role" : {},
                    "_comment" : "websocket, restful"}}
}