{
  "coin_address_eachExchange" : {"_comment" : "you don't need coinAddresses when ATRA_WATCHER mode"},

  "feeInfo_eachExchange" : {"bithumb" : {"prePaid_coupon" : true, "consideringFee_when_transferOrder" : false ,
                "tradeFee_ratio" : 0.0005,
                "transferFee_coin": {
                  "BTC": 0.001,
                  "ETH": 0.01,
                  "ETC": 0.01,
                  "LTC": 0.01,
                  "DASH": 0.01,
                  "XRP": 1,
                  "XMR" : 0.05,
                  "QTUM" : 0.05,
                  "BTG": 0.001,
                  "BCH": 0.001,
                  "ZEC": 0.001,
                  "EOS": 1.5,
                  "ICX": 1.5,
                  "VEN": 1.5,
                  "TRX": 80,
                  "ELF": 5,
                  "MITH": 5,
                  "MCO": 0.5,
                  "OMG": 0.4,
                  "KNC": 3,
                  "GNT": 12,
                  "HSR": 0.2,
                  "ZIL": 30,
                  "ETHOS": 2,
                  "PAY": 2.4,
                  "WAX": 5,
                  "POWR": 5,
                  "LRC": 10,
                  "GTO": 15,
                  "STEEM": 0.01,
                  "STRAT": 0.2
                },
                "_comment" : "bithumb tradeFee_ratio is prePaid_coupon applied fee, https://www.bithumb.com/u1/US138"},

                "poloniex" : {"prePaid_coupon" : false, "consideringFee_when_transferOrder" : true ,
                  "tradeFee_ratio":  0.0025,
                  "transferFee_coin" : {
                    "BTC": 0.0005,
                    "ETH": 0.01,
                    "ETC": 0.01,
                    "LTC": 0.001,
                    "DASH": 0.01,
                    "XRP":0.15,
                    "XMR": 0.015,
                    "BCH": 0.0001,
                    "ZEC": 0.001,
                    "OMG": 0.3,
                    "GNT": 1,
                    "STEEM": 0.01

                },
                "_comment" : "https://poloniex.com/feeTier/"},

                "bitfinex" : {"prePaid_coupon" : false, "consideringFee_when_transferOrder" : false ,
                  "tradeFee_ratio":  0.002,
                  "transferFee_coin" : {
                    "BTC": 0.0004,
                    "ETH": 0.0027,
                    "ETC": 0.01,
                    "LTC": 0.001,
                    "DASH": 0.01,
                    "QTUM" : 0.01,
                    "XRP":0.02,
                    "BTG" : 0,
                    "XMR" : 0.04,
                    "BCH": 0.0001,
                    "ZEC": 0.001,
                    "EOS": 0,
                    "VEN": 0.39696,
                    "TRX": 29.947,
                    "ELF": 1.9593,
                    "MIT": 2.4546,
                    "OMG": 0.1374,
                    "KNC": 0.85048,
                    "GNT": 3.4839,
                    "WAX": 10.151,
                    "LRC": 3.1107
                },"_comment" : "https://www.bitfinex.com/fees"},

                "binance" : {"prePaid_coupon" : true, "consideringFee_when_transferOrder" : false ,
                  "tradeFee_ratio":  0.0005,
                  "transferFee_coin" : {
                  "BTC": 0.0005,
                    "ETC": 0.01,
                    "LTC": 0.01,
                    "DASH": 0.002,
                    "XRP": 0.25,
                    "ETH": 0.01,
                    "QTUM": 0.01,
                    "XMR": 0.04,
                    "BTG": 0.001,
                    "ZEC": 0.005,
                    "EOS": 0.4,
                    "ICX": 0.02,
                    "VEN": 1.1,
                    "TRX": 66,
                    "ELF": 5.2,
                    "MCO": 0.47,
                    "OMG": 0.38,
                    "KNC": 3.4,
                    "GNT": 9.1,
                    "HSR": 0.0001,
                    "ZIL": 41.4,
                    "POWR": 14,
                    "LRC": 7.9,
                    "GTO": 22,
                    "STEEM": 0.01,
                    "STRAT": 0.1
                },
                "_comment" : "https://www.bitfinex.com/fees"},

                "bittrex" : {"prePaid_coupon" : false, "consideringFee_when_transferOrder" : true ,
                "tradeFee_ratio":  0.0025,
                "transferFee_coin" : {
                  "BTC": 0.001,
                  "ETH": 0.005,
                  "ETC": 0.01,
                  "LTC": 0.002,
                  "DASH": 0.01,
                  "XRP":0.02,
                  "BCH" : 0.0001,
                  "ZEC":0.001,
                  "OMG":0.3,
                  "GNT":1 },
                "_comment" : "https://www.bitfinex.com/fees"}
                  },
  "coin_roleList_eachExchange" : {"bithumb" :{
                                    "fiat" : "KRW",
                                    "KRW" : ["BTC", "ETC", "LTC", "DASH", "XRP","ETH","QTUM","XMR","BCH","ZEC","EOS","ICX","VEN","TRX","ELF","MITH","MCO","OMG","KNC","GNT","HSR","ZIL","ETHOS","PAY","WAX","POWR","LRC","GTO","STEEM","STRAT"]},
                                  "poloniex" : {
                                    "fiat" : "USDT",
                                    "BTC" : [ "ETC", "LTC", "DASH", "XRP","ETH","OMG","GNT","XMR","STEEM","XEM"],
                                    "ETH" : ["ETC","GNT","ZEC","STEEM"],
                                    "USDT" : ["BTC", "ETH", "ETC", "LTC", "DASH", "XRP","XMR","BCH","ZEC"] },
                                  "bitfinex" : {
                                    "fiat" : "USD",
                                    "BTC" : [ "ETC", "LTC", "DASH", "XRP","ETH", "QTUM","BCH","EOS","VEN","TRX","ELF","MIT","OMG","KNC","GNT","WAX","LRC","BTG","XMR"],
                                    "USD" : ["BTC","ETC", "LTC", "DASH", "XRP","ETH", "QTUM", "BCH","EOS","VEN","TRX","ELF","MIT","OMG","KNC","GNT","WAX","LRC","ZRX","BTG","XMR"],
                                    "ETH" : ["QTUM","BCH","EOS","VEN","TRX","ELF","MIT","OMG","KNC","GNT","WAX","LRC"]},
                                  "binance" : {
                                    "fiat" : "USDT",
                                    "BTC" : ["ETC","LTC","DASH","XRP","ETH","QTUM","XMR","BTG","ZEC","EOS","ICX","VEN","TRX","ELF","MCO","OMG","KNC","GNT","HSR","ZIL","POWR","LRC","GTO","STEEM","STRAT","SNT","ZRX","REP","XEM" ],
                                    "ETH" : ["ETC","LTC","DASH","XRP","QTUM","XMR","BTG","ZEC","EOS","ICX","VEN","TRX","ELF","MCO","OMG","KNC","GNT","HSR","ZIL","POWR","LRC","GTO","STEEM","STRAT","SNT","ZRX","REP","XEM"],
                                    "USDT" : ["BTC","ETC","LTC","XRP","ETH","QTUM","EOS","ICX","VEN","TRX"]},
                                  "bittrex" : {"fiat" : "USDT","BTC" : [ "ETC", "LTC", "DASH", "XRP"], "USDT" : ["BTC", "ETC", "LTC", "DASH", "XRP"]}
                                  },
  "atra_module" : {"atraServer" : {"host" : "https://150.95.179.9","port" : "5000"},
                    "atraCycle_DB" : {"DB_name" : "atra","collection" : "atraCycle"},
                    "atraCnp_DB" : {"DB_name" : "atra", "collection" : "atraCnp"},
                    "atraBalance_DB" : {"DB_name" : "atra" ,"collection" : "atraBalance"},
                    "atra_REPORT" : {"server" : "atraServer", "report_period" : 5 }
                    },
  "convertible_symbol" : { "bitfinex" : {"DASH" : "DSH" , "QTUM" : "QTM"} ,
                              "poloniex" : {} , "_comment" : "'atraCommonSymbol : exchangeSymbol " },
  "api_client_info" : {"bithumb" :{"type" : ["restful"], "role" : {}},
                    "poloniex" : {"type" : ["restful"], "role" : {}},
                    "bitfinex" : {"type" : ["restful","websocket"], "role" : {"orderbook" : "websocket"}},
                    "binance" : {"type" : ["restful","websocket"], "role" : {"orderbook" : "websocket"}},
                    "bittrex" :{"type" : ["restful"], "role" : {},
                    "_comment" : "websocket, restful"}},

  "coin_roleList_eachExchange_backup" : {"bithumb" :{
                                    "fiat" : "KRW",
                                    "KRW" : ["BTC", "ETC", "LTC", "DASH", "XRP","ETH","QTUM","XMR","BCH","ZEC","EOS","ICX","VEN","TRX","ELF","MITH","MCO","OMG","KNC","GNT","HSR","ZIL","ETHOS","PAY","WAX","POWR","LRC","GTO","STEEM","STRAT"]},
                                  "poloniex" : {
                                    "fiat" : "USDT",
                                    "BTC" : [ "ETC", "LTC", "DASH", "XRP","ETH","OMG","GNT","ZRX","XMR","STEEM","XEM"],
                                    "ETH" : ["ETC","GNT","ZRX","ZEC","STEEM"],
                                    "USDT" : ["BTC", "ETH", "ETC", "LTC", "DASH", "XRP","XMR","BCH","ZEC"] },
                                  "bitfinex" : {
                                    "fiat" : "USD",
                                    "BTC" : [ "ETC", "LTC", "DASH", "XRP","ETH", "QTUM","BCH","EOS","VEN","TRX","ELF","MIT","OMG","KNC","GNT","WAX","LRC","ZRX","BTG","XMR"],
                                    "USD" : ["BTC","ETC", "LTC", "DASH", "XRP","ETH", "QTUM", "BCH","EOS","VEN","TRX","ELF","MIT","OMG","KNC","GNT","WAX","LRC","ZRX","BTG","XMR"],
                                    "ETH" : ["QTUM","BCH","EOS","VEN","TRX","ELF","MIT","OMG","KNC","GNT","WAX","LRC","ZRX"]},
                                  "bittrex" : {"fiat" : "USDT","BTC" : [ "ETC", "LTC", "DASH", "XRP"], "USDT" : ["BTC", "ETC", "LTC", "DASH", "XRP"]}
                                  }


}
